DeMagnetConditionCall                  INFO Loading mag field from DBASE/FieldMap/vXrYpZ/cdf
MagneticFieldExtension                 INFO Scale factor: 1.000000
FTRawBankDecoder                       INFO Conditions DB is compatible with FT bank version 7 and 8.
TBTC_Forward_2d6cf192.TrackMaste... WARNING Material corrections currently not supported with DD4HEP and thus disabled.
TBTC_Forward_2d6cf192.TrackMaste... WARNING See https://gitlab.cern.ch/lhcb/Rec/-/issues/326 for more details
TBTC_Forward_2d6cf192.TrackMaste... WARNING TransportSvc is currently incompatible with DD4HEP. Disabling its use and thus any material corrections.
TBTC_Forward_2d6cf192.TrackMaste... WARNING See https://gitlab.cern.ch/lhcb/Rec/-/issues/326 for more details
TBTCMatch_8d0b241e.TrackMasterFi... WARNING Material corrections currently not supported with DD4HEP and thus disabled.
TBTCMatch_8d0b241e.TrackMasterFi... WARNING See https://gitlab.cern.ch/lhcb/Rec/-/issues/326 for more details
TBTCMatch_8d0b241e.TrackMasterFi... WARNING TransportSvc is currently incompatible with DD4HEP. Disabling its use and thus any material corrections.
TBTCMatch_8d0b241e.TrackMasterFi... WARNING See https://gitlab.cern.ch/lhcb/Rec/-/issues/326 for more details
TBTC_down_38d3b525.TrackMasterFi... WARNING Material corrections currently not supported with DD4HEP and thus disabled.
TBTC_down_38d3b525.TrackMasterFi... WARNING See https://gitlab.cern.ch/lhcb/Rec/-/issues/326 for more details
TBTC_down_38d3b525.TrackMasterFi... WARNING TransportSvc is currently incompatible with DD4HEP. Disabling its use and thus any material corrections.
TBTC_down_38d3b525.TrackMasterFi... WARNING See https://gitlab.cern.ch/lhcb/Rec/-/issues/326 for more details
CloneKillerMatch_da645430              INFO Number of counters : 2
 |    Counter                                      |     #     |    sum     | mean/eff^* | rms/err^*  |     min     |     max     |
 | "nTracksInput"                                  |         5 |        324 |     64.800 |
 | "nTracksSelected"                               |         5 |        324 |     64.800 |
DefaultGECFilter                       INFO Number of counters : 1
 |    Counter                                      |     #     |    sum     | mean/eff^* | rms/err^*  |     min     |     max     |
 | "Nb Events Processed"                           |         5 |
HLTControlFlowMgr                      INFO Number of counters : 1
 |    Counter                                      |     #     |    sum     | mean/eff^* | rms/err^*  |     min     |     max     |
 | "Processed events"                              |         5 |
PrCloneKillerDown_f54755ee             INFO Number of counters : 2
 |    Counter                                      |     #     |    sum     | mean/eff^* | rms/err^*  |     min     |     max     |
 | "nTracksInput"                                  |         5 |          0 |     0.0000 |
 | "nTracksSelected"                               |         5 |          0 |     0.0000 |
PrForwardTrackingVelo_6b18cd3a         INFO Number of counters : 10
 |    Counter                                      |     #     |    sum     | mean/eff^* | rms/err^*  |     min     |     max     |
 | "Accepted input tracks"                         |         5 |        352 |     70.400 |
 | "Created long tracks"                           |         5 |         19 |     3.8000 |
 | "Input tracks"                                  |         5 |        367 |     73.400 |
 | "Number of candidate bins per track"            |       352 |        344 |    0.97727 |     1.6077 |      0.0000 |      9.0000 |
 | "Number of complete candidates/track 1st Loop"  |       151 |         12 |   0.079470 |    0.27047 |      0.0000 |      1.0000 |
 | "Number of complete candidates/track 2nd Loop"  |       141 |          7 |   0.049645 |    0.21721 |      0.0000 |      1.0000 |
 | "Number of x candidates per track 1st Loop"     |       151 |         61 |    0.40397 |    0.68260 |
 | "Number of x candidates per track 2nd Loop"     |       141 |        146 |     1.0355 |     1.1449 |
 | "Percentage second loop execution"              |       151 |        141 |    0.93377 |
 | "Removed duplicates"                            |         5 |          0 |     0.0000 |
PrHybridSeeding_4d0337cc               INFO Number of counters : 21
 |    Counter                                      |     #     |    sum     | mean/eff^* | rms/err^*  |     min     |     max     |
 | "Created T2x1 three-hit combinations in case 0" |      6594 |       4315 |    0.65438 |    0.67331 |      0.0000 |      5.0000 |
 | "Created T2x1 three-hit combinations in case 1" |     10404 |       6831 |    0.65657 |    0.74651 |      0.0000 |      9.0000 |
 | "Created T2x1 three-hit combinations in case 2" |     16861 |      14080 |    0.83506 |     1.2174 |      0.0000 |      18.000 |
 | "Created XZ tracks (part 0)"                    |        15 |        535 |     35.667 |     17.207 |      16.000 |      71.000 |
 | "Created XZ tracks (part 1)"                    |        15 |        814 |     54.267 |     60.113 |      11.000 |      195.00 |
 | "Created XZ tracks in case 0"                   |        10 |        485 |     48.500 |     37.561 |      24.000 |      155.00 |
 | "Created XZ tracks in case 1"                   |        10 |        488 |     48.800 |     41.463 |      16.000 |      166.00 |
 | "Created XZ tracks in case 2"                   |        10 |        376 |     37.600 |     53.967 |      11.000 |      195.00 |
 | "Created full hit combinations in case 0"       |       781 |        781 |     1.0000 |     0.0000 |      1.0000 |      1.0000 |
 | "Created full hit combinations in case 1"       |       573 |        573 |     1.0000 |     0.0000 |      1.0000 |      1.0000 |
 | "Created full hit combinations in case 2"       |       608 |        608 |     1.0000 |     0.0000 |      1.0000 |      1.0000 |
 | "Created seed tracks"                           |        10 |        528 |     52.800 |     12.655 |      38.000 |      79.000 |
 | "Created seed tracks (part 0)"                  |         5 |        294 |     58.800 |     16.290 |      43.000 |      88.000 |
 | "Created seed tracks (part 1)"                  |         5 |        294 |     58.800 |     14.162 |      44.000 |      85.000 |
 | "Created seed tracks in case 0"                 |        10 |        275 |     27.500 |     7.6844 |      17.000 |      44.000 |
 | "Created seed tracks in case 1"                 |        10 |        486 |     48.600 |     11.960 |      34.000 |      71.000 |
 | "Created seed tracks in case 2"                 |        10 |        550 |     55.000 |     14.248 |      40.000 |      86.000 |
 | "Created seed tracks in recovery step"          |         5 |         38 |     7.6000 |     2.7276 |      6.0000 |      13.000 |
 | "Created two-hit combinations in case 0"        |      1400 |      27505 |     19.646 |     12.587 |      0.0000 |      58.000 |
 | "Created two-hit combinations in case 1"        |      1290 |      38615 |     29.934 |     16.701 |      3.0000 |      81.000 |
 | "Created two-hit combinations in case 2"        |      1016 |      47436 |     46.689 |     27.104 |      3.0000 |      126.00 |
PrKalmanFilterForward_cb8c5097         INFO Number of counters : 6
 |    Counter                                      |     #     |    sum     | mean/eff^* | rms/err^*  |     min     |     max     |
 | "Pre outlier chi2 cut"                          |         1 |
 | "chi2 cut"                                      |         3 |
 | "nIterations"                                   |        19 |         46 |     2.4211 |
 | "nOutlierIterations"                            |        18 |         14 |    0.77778 |
 | "nTracksInput"                                  |         5 |         19 |     3.8000 |
 | "nTracksOutput"                                 |         5 |         15 |     3.0000 |
PrKalmanFilterMatch_84c5ec51           INFO Number of counters : 6
 |    Counter                                      |     #     |    sum     | mean/eff^* | rms/err^*  |     min     |     max     |
 | "Pre outlier chi2 cut"                          |         2 |
 | "chi2 cut"                                      |         9 |
 | "nIterations"                                   |       324 |        671 |     2.0710 |
 | "nOutlierIterations"                            |       322 |        132 |    0.40994 |
 | "nTracksInput"                                  |         5 |        324 |     64.800 |
 | "nTracksOutput"                                 |         5 |        313 |     62.600 |
PrKalmanFilter_Downstream_50c47f28     INFO Number of counters : 2
 |    Counter                                      |     #     |    sum     | mean/eff^* | rms/err^*  |     min     |     max     |
 | "nTracksInput"                                  |         5 |          0 |     0.0000 |
 | "nTracksOutput"                                 |         5 |          0 |     0.0000 |
PrLongLivedTracking_4bc436e4           INFO Number of counters : 1
 |    Counter                                      |     #     |    sum     | mean/eff^* | rms/err^*  |     min     |     max     |
 | "#Downstream tracks made"                       |         5 |          0 |     0.0000 |
PrMatchNN_2a73085d                     INFO Number of counters : 3
 |    Counter                                      |     #     |    sum     | mean/eff^* | rms/err^*  |     min     |     max     |
 | "#MatchingChi2"                                 |         5 |   4395.291 |     879.06 |
 | "#MatchingMLP"                                  |       324 |   279.3192 |    0.86210 |
 | "#MatchingTracks"                               |         5 |        324 |     64.800 |
PrStorePrUTHits_c5eaf5a1               INFO Number of counters : 1
 |    Counter                                      |     #     |    sum     | mean/eff^* | rms/err^*  |     min     |     max     |
 | "#banks"                                        |         5 |       1080 |     216.00 |
PrStoreSciFiHits_fb0eba02              INFO Number of counters : 25
 |    Counter                                      |     #     |    sum     | mean/eff^* | rms/err^*  |     min     |     max     |
 | "Average X in T1U"                              |      1469 |   19576.46 |     13.326 |     1188.9 |     -2654.7 |      2641.4 |
 | "Average X in T1V"                              |      1562 |  -6956.086 |    -4.4533 |     1168.8 |     -2653.1 |      2644.4 |
 | "Average X in T1X1"                             |      1400 |  -20280.48 |    -14.486 |     1200.1 |     -2640.5 |      2635.4 |
 | "Average X in T1X2"                             |      1515 |  -87951.97 |    -58.054 |     1122.1 |     -2641.5 |      2643.5 |
 | "Average X in T2U"                              |      1448 |    65031.9 |     44.912 |     1172.7 |     -2622.3 |      2648.1 |
 | "Average X in T2V"                              |      1483 |   7186.301 |     4.8458 |     1166.5 |     -2654.2 |      2648.4 |
 | "Average X in T2X1"                             |      1360 |   -29439.5 |    -21.647 |     1189.0 |     -2642.7 |      2643.4 |
 | "Average X in T2X2"                             |      1524 |  -57569.92 |    -37.776 |     1218.7 |     -2642.1 |      2644.2 |
 | "Average X in T3U"                              |      1635 |   4010.478 |     2.4529 |     1433.1 |     -3171.1 |      3169.2 |
 | "Average X in T3V"                              |      1689 |  -78228.25 |    -46.316 |     1439.4 |     -3182.3 |      3184.0 |
 | "Average X in T3X1"                             |      1624 |  -73044.63 |    -44.978 |     1430.5 |     -3174.1 |      3166.7 |
 | "Average X in T3X2"                             |      1658 |  -77643.92 |    -46.830 |     1429.2 |     -3173.4 |      3157.0 |
 | "Hits in T1U"                                   |        20 |       1469 |     73.450 |     16.845 |      47.000 |      110.00 |
 | "Hits in T1V"                                   |        20 |       1562 |     78.100 |     22.192 |      47.000 |      120.00 |
 | "Hits in T1X1"                                  |        20 |       1400 |     70.000 |     15.205 |      49.000 |      102.00 |
 | "Hits in T1X2"                                  |        20 |       1515 |     75.750 |     21.899 |      44.000 |      119.00 |
 | "Hits in T2U"                                   |        20 |       1448 |     72.400 |     24.473 |      41.000 |      134.00 |
 | "Hits in T2V"                                   |        20 |       1483 |     74.150 |     22.062 |      46.000 |      135.00 |
 | "Hits in T2X1"                                  |        20 |       1360 |     68.000 |     22.552 |      43.000 |      140.00 |
 | "Hits in T2X2"                                  |        20 |       1524 |     76.200 |     24.209 |      43.000 |      146.00 |
 | "Hits in T3U"                                   |        20 |       1635 |     81.750 |     23.918 |      53.000 |      151.00 |
 | "Hits in T3V"                                   |        20 |       1689 |     84.450 |     23.678 |      52.000 |      140.00 |
 | "Hits in T3X1"                                  |        20 |       1624 |     81.200 |     22.986 |      48.000 |      140.00 |
 | "Hits in T3X2"                                  |        20 |       1658 |     82.900 |     24.873 |      46.000 |      140.00 |
 | "Total number of hits"                          |         5 |      18367 |     3673.4 |     914.91 |      2611.0 |      5380.0 |
PrVPHitsToVPLightClusters_be1d4c28     INFO Number of counters : 1
 |    Counter                                      |     #     |    sum     | mean/eff^* | rms/err^*  |     min     |     max     |
 | "Nb of Produced Clusters"                       |         5 |      10106 |     2021.2 |
TBTCMatch_8d0b241e                     INFO Number of counters : 3
 |    Counter                                      |     #     |    sum     | mean/eff^* | rms/err^*  |     min     |     max     |
 |*"BadInput"                                      |       313 |          0 |( 0.000000 +- 0.000000)% |
 |*"FitFailed"                                     |       313 |          0 |( 0.000000 +- 0.000000)% |
 | "FittedBefore"                                  |       313 |
TBTC_Forward_2d6cf192                  INFO Number of counters : 3
 |    Counter                                      |     #     |    sum     | mean/eff^* | rms/err^*  |     min     |     max     |
 |*"BadInput"                                      |        15 |          0 |( 0.000000 +- 0.000000)% |
 |*"FitFailed"                                     |        15 |          0 |( 0.000000 +- 0.000000)% |
 | "FittedBefore"                                  |        15 |
TtracksMVAFilter_7fe1b546              INFO Number of counters : 3
 |    Counter                                      |     #     |    sum     | mean/eff^* | rms/err^*  |     min     |     max     |
 | "#input tracks"                                 |         5 |        232 |     46.400 |     11.977 |      28.000 |      60.000 |
 | "#passed single track MVA selection"            |         5 |        109 |     21.800 |     8.1829 |      12.000 |      33.000 |
 | "#single tracks passed track pair MVA selection"|         5 |         26 |     5.2000 |     3.9699 |      0.0000 |      11.000 |
VeloRetinaClusterTrackingSIMD_3c...    INFO Number of counters : 2
 |    Counter                                      |     #     |    sum     | mean/eff^* | rms/err^*  |     min     |     max     |
 | "Nb of Produced Clusters"                       |         5 |      10106 |     2021.2 |
 | "Nb of Produced Tracks"                         |         5 |       1067 |     213.40 |
fromPrSeedingTracksV1Tracks_84cd...    INFO Number of counters : 1
 |    Counter                                      |     #     |    sum     | mean/eff^* | rms/err^*  |     min     |     max     |
 | "Nb of converted Tracks"                        |         5 |        528 |     105.60 |
