ForwardTrackChecker_25c384b3           INFO Results
ForwardTrackChecker_25c384b3           INFO **** Forward                                    2124 tracks including           1889 ghosts [88.94 %], Event average 37.08 % ****
ForwardTrackChecker_25c384b3           INFO   01_long                                  :     187 from     9160 [  2.04 %]      3 clones [ 1.58 %], purity: 97.04 %, hitEff: 88.97 %
ForwardTrackChecker_25c384b3           INFO   02_long_P>5GeV                           :      47 from     4715 [  1.00 %]      0 clones [ 0.00 %], purity: 95.43 %, hitEff: 88.37 %
ForwardTrackChecker_25c384b3           INFO   03_long_strange                          :      12 from      598 [  2.01 %]      0 clones [ 0.00 %], purity: 95.56 %, hitEff: 86.82 %
ForwardTrackChecker_25c384b3           INFO   04_long_strange_P>5GeV                   :       4 from      247 [  1.62 %]      0 clones [ 0.00 %], purity: 90.14 %, hitEff: 83.14 %
ForwardTrackChecker_25c384b3           INFO   07_long_electrons                        :       1 from      163 [  0.61 %]      0 clones [ 0.00 %], purity:100.00 %, hitEff:100.00 %
ForwardTrackChecker_25c384b3           INFO   07_long_electrons_pairprod               :       1 from      140 [  0.71 %]      0 clones [ 0.00 %], purity:100.00 %, hitEff:100.00 %
ForwardTrackChecker_25c384b3           INFO   10_long_strange_P>3GeV_Pt>0.5GeV         :       4 from      216 [  1.85 %]      0 clones [ 0.00 %], purity: 91.29 %, hitEff: 85.04 %
ForwardTrackChecker_25c384b3           INFO
MatchTrackChecker_9f924467             INFO Results
MatchTrackChecker_9f924467             INFO **** Match                                     24025 tracks including          17577 ghosts [73.16 %], Event average 28.81 % ****
MatchTrackChecker_9f924467             INFO   01_long                                  :    6052 from     9160 [ 66.07 %]     22 clones [ 0.36 %], purity: 99.41 %, hitEff: 96.19 %
MatchTrackChecker_9f924467             INFO   02_long_P>5GeV                           :    3600 from     4715 [ 76.35 %]     12 clones [ 0.33 %], purity: 99.39 %, hitEff: 97.02 %
MatchTrackChecker_9f924467             INFO   03_long_strange                          :     367 from      598 [ 61.37 %]      1 clones [ 0.27 %], purity: 99.54 %, hitEff: 96.04 %
MatchTrackChecker_9f924467             INFO   04_long_strange_P>5GeV                   :     174 from      247 [ 70.45 %]      0 clones [ 0.00 %], purity: 99.47 %, hitEff: 97.45 %
MatchTrackChecker_9f924467             INFO   07_long_electrons                        :      76 from      163 [ 46.63 %]      1 clones [ 1.30 %], purity: 99.16 %, hitEff: 96.64 %
MatchTrackChecker_9f924467             INFO   07_long_electrons_pairprod               :      64 from      140 [ 45.71 %]      1 clones [ 1.54 %], purity: 99.00 %, hitEff: 96.54 %
MatchTrackChecker_9f924467             INFO   10_long_strange_P>3GeV_Pt>0.5GeV         :     148 from      216 [ 68.52 %]      0 clones [ 0.00 %], purity: 99.60 %, hitEff: 97.84 %
MatchTrackChecker_9f924467             INFO
SeedTrackChecker_cb7bbe88              INFO Results
SeedTrackChecker_cb7bbe88              INFO **** Seed                           221964 tracks including         188360 ghosts [84.86 %], Event average 28.29 % ****
SeedTrackChecker_cb7bbe88              INFO   01_hasT                        :   25803 from    39520 [ 65.29 %]     19 clones [ 0.07 %], purity: 98.55 %, hitEff: 94.88 %
SeedTrackChecker_cb7bbe88              INFO   02_long                        :    6873 from     9160 [ 75.03 %]      3 clones [ 0.04 %], purity: 98.90 %, hitEff: 95.65 %
SeedTrackChecker_cb7bbe88              INFO   03_long_P>5GeV                 :    3845 from     4715 [ 81.55 %]      3 clones [ 0.08 %], purity: 98.85 %, hitEff: 96.63 %
SeedTrackChecker_cb7bbe88              INFO   06_UT+T_strange                :    2419 from     3224 [ 75.03 %]      0 clones [ 0.00 %], purity: 98.98 %, hitEff: 95.25 %
SeedTrackChecker_cb7bbe88              INFO   07_UT+T_strange_P>5GeV         :    1285 from     1648 [ 77.97 %]      0 clones [ 0.00 %], purity: 98.77 %, hitEff: 95.89 %
SeedTrackChecker_cb7bbe88              INFO   08_noVelo+UT+T_strange         :    1979 from     2626 [ 75.36 %]      0 clones [ 0.00 %], purity: 98.95 %, hitEff: 95.21 %
SeedTrackChecker_cb7bbe88              INFO   09_noVelo+UT+T_strange_P>5GeV  :    1095 from     1401 [ 78.16 %]      0 clones [ 0.00 %], purity: 98.71 %, hitEff: 95.65 %
SeedTrackChecker_cb7bbe88              INFO   13_hasT_electrons              :    3436 from     8940 [ 38.43 %]      4 clones [ 0.12 %], purity: 98.62 %, hitEff: 93.75 %
SeedTrackChecker_cb7bbe88              INFO   14_long_electrons              :     115 from      163 [ 70.55 %]      0 clones [ 0.00 %], purity: 99.08 %, hitEff: 94.79 %
SeedTrackChecker_cb7bbe88              INFO   16_long_electrons_P>5GeV       :      37 from       46 [ 80.43 %]      0 clones [ 0.00 %], purity: 99.46 %, hitEff: 97.76 %
SeedTrackChecker_cb7bbe88              INFO
VeloTrackChecker_65f1a622              INFO Results
VeloTrackChecker_65f1a622              INFO **** Velo                                      29724 tracks including            246 ghosts [ 0.83 %], Event average  0.44 % ****
VeloTrackChecker_65f1a622              INFO   01_velo                                  :   16789 from    17430 [ 96.32 %]     82 clones [ 0.49 %], purity: 99.89 %, hitEff: 97.23 %, hitEffFirst3: 98.25 %, hitEffLast: 95.13 %
VeloTrackChecker_65f1a622              INFO   02_long                                  :    9002 from     9160 [ 98.28 %]     33 clones [ 0.37 %], purity: 99.93 %, hitEff: 97.88 %, hitEffFirst3: 98.93 %, hitEffLast: 95.88 %
VeloTrackChecker_65f1a622              INFO   03_long_P>5GeV                           :    4644 from     4715 [ 98.49 %]     13 clones [ 0.28 %], purity: 99.94 %, hitEff: 98.17 %, hitEffFirst3: 99.13 %, hitEffLast: 96.34 %
VeloTrackChecker_65f1a622              INFO   04_long_strange                          :     573 from      598 [ 95.82 %]      1 clones [ 0.17 %], purity: 99.81 %, hitEff: 97.96 %, hitEffFirst3: 98.90 %, hitEffLast: 95.44 %
VeloTrackChecker_65f1a622              INFO   05_long_strange_P>5GeV                   :     239 from      247 [ 96.76 %]      0 clones [ 0.00 %], purity: 99.74 %, hitEff: 98.37 %, hitEffFirst3: 99.16 %, hitEffLast: 96.02 %
VeloTrackChecker_65f1a622              INFO   08_long_electrons                        :     147 from      163 [ 90.18 %]      1 clones [ 0.68 %], purity: 98.13 %, hitEff: 96.65 %, hitEffFirst3: 97.97 %, hitEffLast: 89.95 %
VeloTrackChecker_65f1a622              INFO   11_long_strange_P>3GeV_Pt>0.5GeV         :     207 from      216 [ 95.83 %]      0 clones [ 0.00 %], purity: 99.70 %, hitEff: 98.47 %, hitEffFirst3: 99.19 %, hitEffLast: 97.00 %
VeloTrackChecker_65f1a622              INFO
VeloFullTrackChecker_ccf457c1          INFO Results
VeloFullTrackChecker_ccf457c1          INFO **** VeloFull                                            29724 tracks including            246 ghosts [ 0.83 %], Event average  0.44 % ****
VeloFullTrackChecker_ccf457c1          INFO   01_notElectron_Velo                                :   16789 from    17430 [ 96.32 %]     82 clones [ 0.49 %], purity: 99.89 %, hitEff: 97.23 %, hitEffFirst3: 98.25 %, hitEffLast: 95.13 %
VeloFullTrackChecker_ccf457c1          INFO   02_notElectron_Velo_Forward                        :   16789 from    17430 [ 96.32 %]     82 clones [ 0.49 %], purity: 99.89 %, hitEff: 97.23 %, hitEffFirst3: 98.25 %, hitEffLast: 95.13 %
VeloFullTrackChecker_ccf457c1          INFO   04_notElectron_Velo_Eta25                          :   16789 from    17430 [ 96.32 %]     82 clones [ 0.49 %], purity: 99.89 %, hitEff: 97.23 %, hitEffFirst3: 98.25 %, hitEffLast: 95.13 %
VeloFullTrackChecker_ccf457c1          INFO   05_notElectron_Long_Eta25                          :    9002 from     9160 [ 98.28 %]     33 clones [ 0.37 %], purity: 99.93 %, hitEff: 97.88 %, hitEffFirst3: 98.93 %, hitEffLast: 95.88 %
VeloFullTrackChecker_ccf457c1          INFO   06_notElectron_Long_Eta25 p>5GeV                   :    4644 from     4715 [ 98.49 %]     13 clones [ 0.28 %], purity: 99.94 %, hitEff: 98.17 %, hitEffFirst3: 99.13 %, hitEffLast: 96.34 %
VeloFullTrackChecker_ccf457c1          INFO   07_notElectron_Long_Eta25 p<5GeV                   :    9002 from     9160 [ 98.28 %]     33 clones [ 0.37 %], purity: 99.93 %, hitEff: 97.88 %, hitEffFirst3: 98.93 %, hitEffLast: 95.88 %
VeloFullTrackChecker_ccf457c1          INFO   08_notElectron_Long_Eta25 p>3GeV pt>400MeV         :    9002 from     9160 [ 98.28 %]     33 clones [ 0.37 %], purity: 99.93 %, hitEff: 97.88 %, hitEffFirst3: 98.93 %, hitEffLast: 95.88 %
VeloFullTrackChecker_ccf457c1          INFO   17_notElectron_Long_strange_Eta25                  :     573 from      598 [ 95.82 %]      1 clones [ 0.17 %], purity: 99.81 %, hitEff: 97.96 %, hitEffFirst3: 98.90 %, hitEffLast: 95.44 %
VeloFullTrackChecker_ccf457c1          INFO   18_notElectron_Long_strange_Eta25 p>5GeV           :     239 from      247 [ 96.76 %]      0 clones [ 0.00 %], purity: 99.74 %, hitEff: 98.37 %, hitEffFirst3: 99.16 %, hitEffLast: 96.02 %
VeloFullTrackChecker_ccf457c1          INFO   19_notElectron_Long_strange_Eta25 p<5GeV           :     334 from      351 [ 95.16 %]      1 clones [ 0.30 %], purity: 99.86 %, hitEff: 97.67 %, hitEffFirst3: 98.71 %, hitEffLast: 95.01 %
VeloFullTrackChecker_ccf457c1          INFO   20_notElectron_Long_strange_Eta25 p>3GeV pt>400MeV :     263 from      274 [ 95.99 %]      0 clones [ 0.00 %], purity: 99.77 %, hitEff: 98.35 %, hitEffFirst3: 99.11 %, hitEffLast: 96.59 %
VeloFullTrackChecker_ccf457c1          INFO   21_Electron_Velo                                   :     724 from     1268 [ 57.10 %]      6 clones [ 0.82 %], purity: 98.15 %, hitEff: 92.30 %, hitEffFirst3: 91.46 %, hitEffLast: 91.40 %
VeloFullTrackChecker_ccf457c1          INFO   22_Electron_Velo_Forward                           :     724 from     1268 [ 57.10 %]      6 clones [ 0.82 %], purity: 98.15 %, hitEff: 92.30 %, hitEffFirst3: 91.46 %, hitEffLast: 91.40 %
VeloFullTrackChecker_ccf457c1          INFO   24_Electron_Velo_Eta25                             :     724 from     1268 [ 57.10 %]      6 clones [ 0.82 %], purity: 98.15 %, hitEff: 92.30 %, hitEffFirst3: 91.46 %, hitEffLast: 91.40 %
VeloFullTrackChecker_ccf457c1          INFO   25_Electron_Long_Eta25                             :     147 from      163 [ 90.18 %]      1 clones [ 0.68 %], purity: 98.13 %, hitEff: 96.65 %, hitEffFirst3: 97.97 %, hitEffLast: 89.95 %
VeloFullTrackChecker_ccf457c1          INFO   26_Electron_Long_Eta25 p>5GeV                      :      43 from       46 [ 93.48 %]      1 clones [ 2.27 %], purity: 97.95 %, hitEff: 96.36 %, hitEffFirst3: 96.97 %, hitEffLast: 92.42 %
VeloFullTrackChecker_ccf457c1          INFO   27_Electron_Long_Eta25 p<5GeV                      :     104 from      117 [ 88.89 %]      0 clones [ 0.00 %], purity: 98.21 %, hitEff: 96.77 %, hitEffFirst3: 98.40 %, hitEffLast: 88.77 %
VeloFullTrackChecker_ccf457c1          INFO   28_Electron_Long_Eta25 p>3GeV pt>400MeV            :      37 from       42 [ 88.10 %]      1 clones [ 2.63 %], purity: 98.82 %, hitEff: 97.76 %, hitEffFirst3: 98.25 %, hitEffLast: 94.83 %
VeloFullTrackChecker_ccf457c1          INFO
BestLongTrackChecker_3df1b5d8          INFO Results
BestLongTrackChecker_3df1b5d8          INFO **** BestLong                                   8947 tracks including           2567 ghosts [28.69 %], Event average 13.58 % ****
BestLongTrackChecker_3df1b5d8          INFO   01_long                                  :    6023 from     9160 [ 65.75 %]      0 clones [ 0.00 %], purity: 99.60 %, hitEff: 96.87 %
BestLongTrackChecker_3df1b5d8          INFO   02_long_P>5GeV                           :    3508 from     4715 [ 74.40 %]      0 clones [ 0.00 %], purity: 99.62 %, hitEff: 97.62 %
BestLongTrackChecker_3df1b5d8          INFO   03_long_strange                          :     365 from      598 [ 61.04 %]      0 clones [ 0.00 %], purity: 99.61 %, hitEff: 96.76 %
BestLongTrackChecker_3df1b5d8          INFO   04_long_strange_P>5GeV                   :     169 from      247 [ 68.42 %]      0 clones [ 0.00 %], purity: 99.66 %, hitEff: 98.04 %
BestLongTrackChecker_3df1b5d8          INFO   07_long_electrons                        :      74 from      163 [ 45.40 %]      0 clones [ 0.00 %], purity: 99.57 %, hitEff: 97.47 %
BestLongTrackChecker_3df1b5d8          INFO   07_long_electrons_pairprod               :      62 from      140 [ 44.29 %]      0 clones [ 0.00 %], purity: 99.49 %, hitEff: 97.53 %
BestLongTrackChecker_3df1b5d8          INFO   10_long_strange_P>3GeV_Pt>0.5GeV         :     146 from      216 [ 67.59 %]      0 clones [ 0.00 %], purity: 99.60 %, hitEff: 97.93 %
BestLongTrackChecker_3df1b5d8          INFO
LongGhostFilteredTrackChecker_fd...    INFO Results
LongGhostFilteredTrackChecker_fd...    INFO **** LongGhostFiltered                          8062 tracks including           1775 ghosts [22.02 %], Event average 11.02 % ****
LongGhostFilteredTrackChecker_fd...    INFO   01_long                                  :    5939 from     9160 [ 64.84 %]      0 clones [ 0.00 %], purity: 99.66 %, hitEff: 97.00 %
LongGhostFilteredTrackChecker_fd...    INFO   02_long_P>5GeV                           :    3459 from     4715 [ 73.36 %]      0 clones [ 0.00 %], purity: 99.66 %, hitEff: 97.71 %
LongGhostFilteredTrackChecker_fd...    INFO   03_long_strange                          :     360 from      598 [ 60.20 %]      0 clones [ 0.00 %], purity: 99.64 %, hitEff: 96.85 %
LongGhostFilteredTrackChecker_fd...    INFO   04_long_strange_P>5GeV                   :     167 from      247 [ 67.61 %]      0 clones [ 0.00 %], purity: 99.73 %, hitEff: 98.12 %
LongGhostFilteredTrackChecker_fd...    INFO   07_long_electrons                        :      74 from      163 [ 45.40 %]      0 clones [ 0.00 %], purity: 99.57 %, hitEff: 97.47 %
LongGhostFilteredTrackChecker_fd...    INFO   07_long_electrons_pairprod               :      62 from      140 [ 44.29 %]      0 clones [ 0.00 %], purity: 99.49 %, hitEff: 97.53 %
LongGhostFilteredTrackChecker_fd...    INFO   10_long_strange_P>3GeV_Pt>0.5GeV         :     145 from      216 [ 67.13 %]      0 clones [ 0.00 %], purity: 99.64 %, hitEff: 98.00 %
LongGhostFilteredTrackChecker_fd...    INFO
TrackResCheckerBestLong                INFO      ************************************
TrackResCheckerBestLong                INFO Long/x pull     :  mean =  0.017 +/- 0.014, RMS = 1.149 +/- 0.013
TrackResCheckerBestLong                INFO Long/y pull     :  mean =  -0.001 +/- 0.014, RMS = 1.142 +/- 0.013
TrackResCheckerBestLong                INFO Long/tx pull    :  mean =  -0.013 +/- 0.013, RMS = 1.051 +/- 0.012
TrackResCheckerBestLong                INFO Long/ty pull    :  mean =  0.002 +/- 0.013, RMS = 1.052 +/- 0.013
TrackResCheckerBestLong                INFO Long/p pull     :  mean =  -0.022 +/- 0.016, RMS = 1.249 +/- 0.014
TrackResCheckerBestLong                INFO Long/probChi2   :  mean =  0.379 +/- 0.004, RMS = 0.303 +/- 0.002
TrackResCheckerBestLong                INFO Long/x resolution / mm:  RMS =  122.776 +/- 1.365 micron
TrackResCheckerBestLong                INFO Long/y resolution / mm:  RMS =  122.767 +/- 1.384 micron
TrackResCheckerBestLong                INFO Long/dp/p:  mean =  0.0002 +/- 0.0001, RMS =  0.0052 +/- 0.0001
GraphClustering_72971694               INFO Built <244.823> graph calo clustering clusters/event
CaloClusterEff_ET250                SUCCESS Booked 1 N-Tuples and 0 Event Tag Collections
CaloClusterEff_ET250                SUCCESS List of booked N-Tuples in directory "FILE1/CaloClusterEff_ET250"
CaloClusterEff_ET250                SUCCESS  ID=clusEff       Title="clusEff"                                 #items=13 {endVtx_X,endVtx_Y,endVtx_Z,endVtx_type,max_fMCP,f_cl,cl_e,cl_et,cl_x,cl_y,cl_z,cl}
CaloClusterEff_ET3000               SUCCESS Booked 1 N-Tuples and 0 Event Tag Collections
CaloClusterEff_ET3000               SUCCESS List of booked N-Tuples in directory "FILE1/CaloClusterEff_ET3000"
CaloClusterEff_ET3000               SUCCESS  ID=clusEff       Title="clusEff"                                 #items=13 {endVtx_X,endVtx_Y,endVtx_Z,endVtx_type,max_fMCP,f_cl,cl_e,cl_et,cl_x,cl_y,cl_z,cl}
CaloClusterEff_Brem_ET50            SUCCESS Booked 1 N-Tuples and 0 Event Tag Collections
CaloClusterEff_Brem_ET50            SUCCESS List of booked N-Tuples in directory "FILE1/CaloClusterEff_Brem_ET50"
CaloClusterEff_Brem_ET50            SUCCESS  ID=clusEff       Title="clusEff"                                 #items=13 {endVtx_X,endVtx_Y,endVtx_Z,endVtx_type,max_fMCP,f_cl,cl_e,cl_et,cl_x,cl_y,cl_z,cl}
CaloClusterEff_resolvedPi0_All      SUCCESS Booked 1 N-Tuples and 0 Event Tag Collections
CaloClusterEff_resolvedPi0_All      SUCCESS List of booked N-Tuples in directory "FILE1/CaloClusterEff_resolvedPi0_All"
CaloClusterEff_resolvedPi0_All      SUCCESS  ID=clusEff       Title="clusEff"                                 #items=13 {endVtx_X,endVtx_Y,endVtx_Z,endVtx_type,max_fMCP,f_cl,cl_e,cl_et,cl_x,cl_y,cl_z,cl}
CaloClusterEff_mergedPi0_All        SUCCESS Booked 1 N-Tuples and 0 Event Tag Collections
CaloClusterEff_mergedPi0_All        SUCCESS List of booked N-Tuples in directory "FILE1/CaloClusterEff_mergedPi0_All"
CaloClusterEff_mergedPi0_All        SUCCESS  ID=clusEff       Title="clusEff"                                 #items=13 {endVtx_X,endVtx_Y,endVtx_Z,endVtx_type,max_fMCP,f_cl,cl_e,cl_et,cl_x,cl_y,cl_z,cl}
CaloHypoEff_ET250                   SUCCESS Booked 3 N-Tuples and 0 Event Tag Collections
CaloHypoEff_ET250                   SUCCESS List of booked N-Tuples in directory "FILE1/CaloHypoEff_ET250"
CaloHypoEff_ET250                   SUCCESS  ID=ElectronHypos Title="ElectronHypos"                           #items=29 {hypo_trueID,hypo_3charge,hypo_parentID,hypo_origVtxX,hypo_origVtxY,hypo_origVtxZ,}
CaloHypoEff_ET250                   SUCCESS  ID=MCParts       Title="MCParts"                                 #items=10 {MCP_trueID,MCP_parentID,MCP_PE,MCP_PT,MCP_ETA,MCP_originVtxX,MCP_originVtxY,MCP_o}
CaloHypoEff_ET250                   SUCCESS  ID=PhotonHypos   Title="PhotonHypos"                             #items=29 {hypo_trueID,hypo_3charge,hypo_parentID,hypo_origVtxX,hypo_origVtxY,hypo_origVtxZ,}
CaloHypoEff_Brem_ET50               SUCCESS Booked 3 N-Tuples and 0 Event Tag Collections
CaloHypoEff_Brem_ET50               SUCCESS List of booked N-Tuples in directory "FILE1/CaloHypoEff_Brem_ET50"
CaloHypoEff_Brem_ET50               SUCCESS  ID=ElectronHypos Title="ElectronHypos"                           #items=29 {hypo_trueID,hypo_3charge,hypo_parentID,hypo_origVtxX,hypo_origVtxY,hypo_origVtxZ,}
CaloHypoEff_Brem_ET50               SUCCESS  ID=MCParts       Title="MCParts"                                 #items=10 {MCP_trueID,MCP_parentID,MCP_PE,MCP_PT,MCP_ETA,MCP_originVtxX,MCP_originVtxY,MCP_o}
CaloHypoEff_Brem_ET50               SUCCESS  ID=PhotonHypos   Title="PhotonHypos"                             #items=29 {hypo_trueID,hypo_3charge,hypo_parentID,hypo_origVtxX,hypo_origVtxY,hypo_origVtxZ,}
TransportSvc                        SUCCESS  GEOMETRY ERRORS: 'Skip'     map has the size 0
TransportSvc                        SUCCESS  GEOMETRY ERRORS: 'Recover'  map has the size 4
   |                      Logical Volume                     |    |  #          mean             RMS          min              max    |
   | AfterMagnetRegion/Rich2/lvRich2Master                   | mm | 15      1.0030353e-10   7.9081433e-11 6.5838244e-12   2.8686049e- |
   | AfterMagnetRegion/Rich2/lvRich2Master                   | X0 | 15      3.3101202e-13   2.6097691e-13 2.1727301e-14    9.466693e- |
   | BeforeMagnetRegion/VP/RFFoil/lvRFFoilCompTnTUnit        | mm | 96      0.029393808        0.11914996 8.7016415e-10       1.02716 |
   | BeforeMagnetRegion/VP/RFFoil/lvRFFoilCompTnTUnit        | X0 | 96      0                           0 0                           |
   | BeforeMagnetRegion/VP/Supports/lvSupport                | mm | 25      0.21753726        0.078975915 0.085083522        0.310422 |
   | BeforeMagnetRegion/VP/Supports/lvSupport                | X0 | 25      0.0003054282    5.8894043e-05 0.00019920605   0.000400572 |
   | BeforeMagnetRegion/lvBeforeMagnetRegion                 | mm | 6308    1.0070247        0.0089184417 1.0003316           1.06825 |
   | BeforeMagnetRegion/lvBeforeMagnetRegion                 | X0 | 6308    0.00041333286   3.6605706e-06 0.00041058568    0.00043846 |
TransportSvc                        SUCCESS  GEOMETRY ERRORS: 'Codes'    map has the size 0
TransportSvc                           INFO Reset the static pointer to DetDesc::IGeometyrErrorSvc
RFileCnv                               INFO dumping contents of /NTUPLES/FILE1
TFile: name=hlt2_lead_lead_track_monitoring_with_mc_ntuples.root, title=Gaudi Trees, option=CREATE
NTupleSvc                              INFO NTuples saved successfully
ChronoStatSvc.finalize()               INFO  Service finalized successfully
ApplicationMgr                         INFO Application Manager Finalized successfully
ApplicationMgr                         INFO Application Manager Terminated successfully
BestLongTrackChecker_3df1b5d8.Lo...    INFO Number of counters : 1
 |    Counter                                      |     #     |    sum     | mean/eff^* | rms/err^*  |     min     |     max     |
CaloAcceptanceBremAlg_Long_ff59c0c6    INFO Number of counters : 2
 |    Counter                                      |     #     |    sum     | mean/eff^* | rms/err^*  |     min     |     max     |
 | "#total tracks"                                 |       175 |       8947 |     51.126 |     54.733 |      0.0000 |      216.00 |
 | "#tracks in acceptance"                         |       175 |       8758 |     50.046 |     53.571 |      0.0000 |      210.00 |
CaloAcceptanceEcalAlg_Long_7fce40db    INFO Number of counters : 2
 |    Counter                                      |     #     |    sum     | mean/eff^* | rms/err^*  |     min     |     max     |
 | "#total tracks"                                 |       175 |       8947 |     51.126 |     54.733 |      0.0000 |      216.00 |
 | "#tracks in acceptance"                         |       175 |       7281 |     41.606 |     44.793 |      0.0000 |      176.00 |
CaloAcceptanceEcalAlg_Ttrack_618...    INFO Number of counters : 2
 |    Counter                                      |     #     |    sum     | mean/eff^* | rms/err^*  |     min     |     max     |
 | "#total tracks"                                 |       175 |     214227 |     1224.2 |     2214.5 |      0.0000 |      9882.0 |
 | "#tracks in acceptance"                         |       175 |     183402 |     1048.0 |     1884.6 |      0.0000 |      8089.0 |
CaloAcceptanceHcalAlg_Long_bdf1389a    INFO Number of counters : 2
 |    Counter                                      |     #     |    sum     | mean/eff^* | rms/err^*  |     min     |     max     |
 | "#total tracks"                                 |       175 |       8947 |     51.126 |     54.733 |      0.0000 |      216.00 |
 | "#tracks in acceptance"                         |       175 |       6743 |     38.531 |     41.804 |      0.0000 |      165.00 |
CaloClusterEff_Brem_ET50               INFO Number of counters : 5
 |    Counter                                      |     #     |    sum     | mean/eff^* | rms/err^*  |     min     |     max     |
 | "# reconstructed"                               |       175 |         71 |    0.40571 |    0.70181 |      0.0000 |      3.0000 |
 | "# reconstructible"                             |       175 |       6919 |     39.537 |     44.549 |      0.0000 |      163.00 |
 | "# signal"                                      |       175 |     192080 |     1097.6 |     1185.3 |      0.0000 |      4572.0 |
 | "More than 1 endVertex found for signal"        |      2350 |
 |*"reco efficiency"                               |      6722 |         71 |( 1.056233 +- 0.1246881)% |
CaloClusterEff_ET250                   INFO Number of counters : 5
 |    Counter                                      |     #     |    sum     | mean/eff^* | rms/err^*  |     min     |     max     |
 | "# reconstructed"                               |       175 |       1512 |     8.6400 |     5.9811 |      0.0000 |      24.000 |
 | "# reconstructible"                             |       175 |      17469 |     99.823 |     110.24 |      0.0000 |      397.00 |
 | "# signal"                                      |       175 |     195266 |     1115.8 |     1188.8 |      0.0000 |      4382.0 |
 | "More than 1 endVertex found for signal"        |       602 |
 |*"reco efficiency"                               |     17341 |       1512 |( 8.719220 +- 0.2142355)% |
CaloClusterEff_ET3000                  INFO Number of counters : 4
 |    Counter                                      |     #     |    sum     | mean/eff^* | rms/err^*  |     min     |     max     |
 | "# reconstructed"                               |       175 |          3 |   0.017143 |    0.12980 |      0.0000 |      1.0000 |
 | "# reconstructible"                             |       175 |          9 |   0.051429 |    0.24538 |      0.0000 |      2.0000 |
 | "# signal"                                      |       175 |        112 |    0.64000 |     1.8644 |      0.0000 |      18.000 |
 |*"reco efficiency"                               |         9 |          3 |( 33.33333 +- 15.71348)% |
CaloClusterEff_mergedPi0_All           INFO Number of counters : 4
 |    Counter                                      |     #     |    sum     | mean/eff^* | rms/err^*  |     min     |     max     |
 | "# reconstructed"                               |       175 |        287 |     1.6400 |     1.7830 |      0.0000 |      9.0000 |
 | "# reconstructible"                             |       175 |      13828 |     79.017 |     99.943 |      0.0000 |      459.00 |
 | "# signal"                                      |       175 |     314338 |     1796.2 |     1895.1 |      0.0000 |      7216.0 |
 |*"reco efficiency"                               |     13737 |        287 |( 2.089248 +- 0.1220293)% |
CaloClusterEff_resolvedPi0_All         INFO Number of counters : 5
 |    Counter                                      |     #     |    sum     | mean/eff^* | rms/err^*  |     min     |     max     |
 | "# reconstructed"                               |       175 |       2163 |     12.360 |     8.2505 |      0.0000 |      33.000 |
 | "# reconstructible"                             |       175 |      35807 |     204.61 |     234.77 |      0.0000 |      882.00 |
 | "# signal"                                      |       175 |     499038 |     2851.6 |     3069.6 |      0.0000 |     11608.0 |
 | "More than 1 endVertex found for signal"        |      2282 |
 |*"reco efficiency"                               |     34798 |       2163 |( 6.215874 +- 0.1294311)% |
CaloClusterMCTruth_b1e9f302            INFO Number of counters : 3
 |    Counter                                      |     #     |    sum     | mean/eff^* | rms/err^*  |     min     |     max     |
 | "#CC2MC links"                                  |       175 |    1686816 |     9638.9 |
 |*"No MC information for the cluster is found"    |     42844 |          0 |( 0.000000 +- 0.000000)% |
 | "The relations table is empty"                  |        11 |
CaloFutureClusterCovarianceAlg_1...    INFO Number of counters : 1
 |    Counter                                      |     #     |    sum     | mean/eff^* | rms/err^*  |     min     |     max     |
 | "# clusters"                                    |     42844 |
CaloFutureClusterCovarianceAlg_1...    INFO Number of counters : 3
 |    Counter                                      |     #     |    sum     | mean/eff^* | rms/err^*  |     min     |     max     |
 | "Corrected Clusters: # cells "                  |      2479 |      10642 |     4.2929 |     1.2660 |      2.0000 |      12.000 |
 | "Corrected Clusters: ET"                        |      2479 |   607235.6 |     244.95 |     277.86 |      1.4000 |      3441.2 |
 | "Corrected Clusters: size ratio"                |      2479 |   1270.806 |    0.51263 |    0.45855 | -7.3447e-16 |      5.4299 |
CaloFutureDigit2MCLinks2Table_b7...    INFO Number of counters : 2
 |    Counter                                      |     #     |    sum     | mean/eff^* | rms/err^*  |     min     |     max     |
 | "#CD2MC links"                                  |       175 |          0 |     0.0000 |
 | "Empty Relation table"                          |       175 |
CaloFutureMergedPi0_d4d479d7           INFO Number of counters : 12
 |    Counter                                      |     #     |    sum     | mean/eff^* | rms/err^*  |     min     |     max     |
 |*"Cluster without 2nd seed found"                |      4464 |          0 |( 0.000000 +- 0.000000)% |
 | "Corrected energy"                              |      8928 |1.306622e+08 |    14635.0 |    14810.0 |      55.234 |  2.2254e+05 |
 |*"Fails to set covariance"                       |      8928 |          0 |( 0.000000 +- 0.000000)% |
 |*"Fails to set spread"                           |      8928 |          0 |( 0.000000 +- 0.000000)% |
 |*"Fails to tag(E) cluster (1)"                   |      4464 |          0 |( 0.000000 +- 0.000000)% |
 |*"Fails to tag(E) cluster (2)"                   |      4464 |          0 |( 0.000000 +- 0.000000)% |
 | "Photon Delta(E)"                               |      8928 |  -856507.5 |    -95.935 |     454.74 |     -5529.3 |      7808.2 |
 | "Photon Delta(X)"                               |      8928 |   -2951.06 |   -0.33054 |     12.837 |     -104.69 |      31.753 |
 | "Photon Delta(Y)"                               |      8928 |   -3404.31 |   -0.38131 |     12.738 |     -27.460 |      35.113 |
 | "Photon Delta(Z)"                               |      8928 |   711660.7 |     79.711 |     10.108 |      18.439 |      118.57 |
 | "clusters => mergedPi0s"                        |       175 |       4464 |     25.509 |
 | "clusters => splitClusters"                     |       175 |       8928 |     51.017 |
CaloFutureMergedPi0_d4d479d7.Cal...    INFO Number of counters : 6
 |    Counter                                      |     #     |    sum     | mean/eff^* | rms/err^*  |     min     |     max     |
 | "<alpha> Inner"                                 |      2730 |   2728.089 |    0.99930 |   0.022243 |     0.96512 |      1.1342 |
 | "<alpha> Middle"                                |      1998 |   2009.879 |     1.0059 |   0.017786 |     0.97720 |      1.0940 |
 | "<alpha> Outer"                                 |      4200 |   4198.314 |    0.99960 |   0.015650 |     0.97363 |      1.1358 |
 | "Pileup offset"                                 |      8928 |   869072.6 |     97.342 |     107.06 |     0.46034 |      897.12 |
 | "Pileup scale"                                  |      8928 |      15070 |     1.6879 |    0.74118 |      1.0000 |      3.0000 |
 | "Pileup subtracted ratio"                       |      8928 |   8862.126 |    0.99262 |  0.0053972 |     0.88416 |     0.99983 |
CaloFutureMergedPi0_d4d479d7.Eca...    INFO Number of counters : 3
 |    Counter                                      |     #     |    sum     | mean/eff^* | rms/err^*  |     min     |     max     |
 | "Corrected Clusters: # cells "                  |       478 |       2316 |     4.8452 |     1.4797 |      3.0000 |      9.0000 |
 | "Corrected Clusters: ET"                        |       478 |     339827 |     710.94 |     598.36 |      10.200 |      3733.8 |
 | "Corrected Clusters: size ratio"                |       478 |   429.5319 |    0.89860 |    0.68705 |      0.0000 |      2.7848 |
CaloHypoEff_Brem_ET50                  INFO Number of counters : 5
 |    Counter                                      |     #     |    sum     | mean/eff^* | rms/err^*  |     min     |     max     |
 | "# Electrons with reco cluster"                 |       175 |          0 |     0.0000 |     0.0000 |      0.0000 |      0.0000 |
 | "# Photons with reco cluster"                   |       175 |         81 |    0.46286 |    0.77647 |      0.0000 |      4.0000 |
 |*"Bkg fraction in Electron hypos"                |      3640 |        626 |( 17.19780 +- 0.6254703)% |
 |*"Bkg fraction in Photon hypos"                  |      5106 |       2032 |( 39.79632 +- 0.6850031)% |
 |*"Photon hypo efficiency"                        |        81 |         61 |( 75.30864 +- 4.791289)% |
CaloHypoEff_ET250                      INFO Number of counters : 6
 |    Counter                                      |     #     |    sum     | mean/eff^* | rms/err^*  |     min     |     max     |
 | "# Electrons with reco cluster"                 |       175 |        185 |     1.0571 |     1.1450 |      0.0000 |      5.0000 |
 | "# Photons with reco cluster"                   |       175 |       1420 |     8.1143 |     5.7200 |      0.0000 |      26.000 |
 |*"Bkg fraction in Electron hypos"                |      3640 |        626 |( 17.19780 +- 0.6254703)% |
 |*"Bkg fraction in Photon hypos"                  |      5106 |       2032 |( 39.79632 +- 0.6850031)% |
 |*"Electron hypo efficiency"                      |       185 |         85 |( 45.94595 +- 3.663970)% |
 |*"Photon hypo efficiency"                        |      1420 |       1200 |( 84.50704 +- 0.9602171)% |
CaloSelectiveBremMatchAlg_Long_e...    INFO Number of counters : 3
 |    Counter                                      |     #     |    sum     | mean/eff^* | rms/err^*  |     min     |     max     |
 | "#links in table"                               |       175 |       1358 |     7.7600 |     10.412 |      0.0000 |      49.000 |
 | "average chi2"                                  |      1358 |   2405.907 |     1.7717 |     3.6799 |  2.9304e-05 |      73.305 |
 | "average energy (track based)"                  |      8758 |   258080.8 |     29.468 |     51.054 |      0.0000 |      1427.7 |
CaloSelectiveElectronMatchAlg_Lo...    INFO Number of counters : 3
 |    Counter                                      |     #     |    sum     | mean/eff^* | rms/err^*  |     min     |     max     |
 | "#above threshold"                              |         4 |          4 |     1.0000 |     0.0000 |      1.0000 |      1.0000 |
 | "#links in table"                               |       175 |       6352 |     36.297 |     40.311 |      0.0000 |      156.00 |
 | "average chi2"                                  |      6352 |   43207.17 |     6.8021 |     18.057 |  0.00051491 |      553.30 |
CaloSelectiveTrackMatchAlg_Long_...    INFO Number of counters : 2
 |    Counter                                      |     #     |    sum     | mean/eff^* | rms/err^*  |     min     |     max     |
 | "#links in table"                               |       175 |       6367 |     36.383 |     40.358 |      0.0000 |      156.00 |
 | "average chi2"                                  |      6367 |   1212.706 |    0.19047 |    0.38952 |  1.6384e-06 |      11.783 |
CaloSelectiveTrackMatchAlg_Ttrac...    INFO Number of counters : 2
 |    Counter                                      |     #     |    sum     | mean/eff^* | rms/err^*  |     min     |     max     |
 | "#links in table"                               |       175 |     152237 |     869.93 |     1583.9 |      0.0000 |      6831.0 |
 | "average chi2"                                  |    152237 |   494.8826 |  0.0032507 |   0.021962 |  1.0340e-08 |      5.2347 |
CaloTrackBasedElectronShowerAlg_...    INFO Number of counters : 2
 |    Counter                                      |     #     |    sum     | mean/eff^* | rms/err^*  |     min     |     max     |
 | "average DLL"                                   |      7281 |     -398.7 |  -0.054759 |    0.24525 |     -8.8150 |      2.3882 |
 | "average E/p"                                   |      7281 |   74.93636 |   0.010292 |   0.025436 |      0.0000 |     0.75304 |
CaloTrackToHcalEnergyAlg_Long_42...    INFO Number of counters : 1
 |    Counter                                      |     #     |    sum     | mean/eff^* | rms/err^*  |     min     |     max     |
 | "energy (calo) associated to track"             |      6743 |4.295782e+07 |     6370.7 |    11626.0 |      0.0000 |  2.5550e+05 |
ChargedProtoParticleMakerLong_2b...    INFO Number of counters : 1
 |    Counter                                      |     #     |    sum     | mean/eff^* | rms/err^*  |     min     |     max     |
 | "CreatedProtos"                                 |      8947 |
ClassifyPhotonElectronAlg_79af7b70     INFO Number of counters : 14
 |    Counter                                      |     #     |    sum     | mean/eff^* | rms/err^*  |     min     |     max     |
 | "Electron Delta(E)"                             |     27968 |   -1243949 |    -44.478 |     332.96 |     -5288.8 |      6018.1 |
 | "Electron Delta(X)"                             |     27968 |  -7393.232 |   -0.26435 |     12.040 |     -49.359 |      46.817 |
 | "Electron Delta(Y)"                             |     27968 |  -7580.551 |   -0.27104 |     12.005 |     -32.233 |      25.274 |
 | "Electron Delta(Z)"                             |     27968 |    1970859 |     70.468 |     14.430 |      24.695 |      123.77 |
 | "Electron corrected energy"                     |     27968 |2.78905e+08 |     9972.3 |    13483.0 |      260.23 |  2.6530e+05 |
 | "Electrons pT-rejected after correction"        |         4 |
 | "Photon Delta(E)"                               |     16233 |   493232.7 |     30.385 |     158.12 |     -3761.3 |      4823.8 |
 | "Photon Delta(X)"                               |     16233 |  -3864.961 |   -0.23809 |     13.908 |     -54.630 |      42.196 |
 | "Photon Delta(Y)"                               |     16233 |  -5800.654 |   -0.35734 |     13.886 |     -91.592 |      33.535 |
 | "Photon Delta(Z)"                               |     16233 |   967975.4 |     59.630 |     12.633 |      22.638 |      123.77 |
 | "Photon corrected energy"                       |     16233 |6.071199e+07 |     3740.0 |     6472.2 |      235.98 |  1.4992e+05 |
 | "Photons pT-rejected after correction"          |         5 |
 | "electronHypos"                                 |       175 |      27964 |     159.79 |     172.49 |      0.0000 |      489.00 |
 | "photonHypos"                                   |       175 |      16228 |     92.731 |     65.336 |      0.0000 |      234.00 |
ClassifyPhotonElectronAlg_79af7b...    INFO Number of counters : 6
 |    Counter                                      |     #     |    sum     | mean/eff^* | rms/err^*  |     min     |     max     |
 | "<alpha> Inner"                                 |     11633 |   11542.37 |    0.99221 |   0.017813 |     0.96434 |      1.1152 |
 | "<alpha> Middle"                                |     12258 |   12313.71 |     1.0045 |   0.018546 |     0.97690 |      1.2053 |
 | "<alpha> Outer"                                 |     20310 |   20289.09 |    0.99897 |   0.015053 |     0.97363 |      1.0998 |
 | "Pileup offset"                                 |     44201 |    3058314 |     69.191 |     91.149 |     -8.1493 |      1338.9 |
 | "Pileup scale"                                  |     44201 |      60576 |     1.3705 |    0.62352 |      0.0000 |      3.0000 |
 | "Pileup subtracted ratio"                       |     44201 |   43549.22 |    0.98525 |   0.018235 |     0.64906 |      1.0129 |
CloneKillerMatch_4a3dddb7              INFO Number of counters : 2
 |    Counter                                      |     #     |    sum     | mean/eff^* | rms/err^*  |     min     |     max     |
 | "nTracksInput"                                  |       175 |      24025 |     137.29 |
 | "nTracksSelected"                               |       175 |      24025 |     137.29 |
ForwardTrackChecker_25c384b3.LoK...    INFO Number of counters : 1
 |    Counter                                      |     #     |    sum     | mean/eff^* | rms/err^*  |     min     |     max     |
FutureNeutralProtoPAlg_7dde8cd2        INFO Number of counters : 36
 |    Counter                                      |     #     |    sum     | mean/eff^* | rms/err^*  |     min     |     max     |
 | "'CaloClusterCode' for Photon"                  |     16228 |    1441969 |     88.857 |     11.532 |
 | "'CaloClusterCode' for Pi0Merged"               |      4464 |     399597 |     89.515 |     10.901 |
 | "'IsNotH' for Photon"                           |     15991 |   4289.368 |    0.26824 |    0.29617 |
 | "'IsNotH' for Pi0Merged"                        |      4464 |   296.3101 |   0.066378 |    0.15706 |
 | "'IsPhoton' for Photon"                         |       100 |   30.02367 |    0.30024 |    0.33513 |
 | "'IsPhoton' for Pi0Merged"                      |      2649 |    245.765 |   0.092777 |    0.14337 |
 | "CaloClusterCode for Photon (additionalInfo)"   |     16228 |    1441969 |     88.857 |     11.532 |      40.000 |      98.000 |
 | "CaloClusterCode for Pi0Merged (additionalInfo)"|      4464 |     399597 |     89.515 |     10.901 |      47.000 |      98.000 |
 | "CaloClusterFrac for Photon (additionalInfo)"   |      9615 |   8356.132 |    0.86907 |    0.15982 |     0.32145 |      9.9370 |
 | "CaloClusterFrac for Pi0Merged (additionalInfo)"|      3377 |    3057.83 |    0.90549 |   0.081918 |     0.55528 |      1.0006 |
 | "CaloNeutralE19 for Photon (additionalInfo)"    |     16228 |    9794.92 |    0.60358 |    0.20810 |     0.16402 |      1.7764 |
 | "CaloNeutralE19 for Pi0Merged (additionalInfo)" |      4464 |   1756.613 |    0.39351 |    0.13258 |     0.13325 |     0.97677 |
 | "CaloNeutralE49 for Photon (additionalInfo)"    |     16228 |   14791.03 |    0.91145 |    0.13082 |     0.50986 |      1.8971 |
 | "CaloNeutralE49 for Pi0Merged (additionalInfo)" |      4464 |   3453.857 |    0.77371 |    0.10062 |     0.50194 |      1.0090 |
 | "CaloNeutralEcal for Photon (additionalInfo)"   |     16228 |6.021629e+07 |     3710.6 |     6492.7 |      151.80 |  1.5194e+05 |
 | "CaloNeutralEcal for Pi0Merged (additionalInfo)"|      4464 |1.195735e+08 |    26786.0 |    24355.0 |      4684.2 |  2.7041e+05 |
 | "CaloNeutralHcal2Ecal for Photon (additionalInfo)"|     16228 |   20371.66 |     1.2553 |     2.3330 |      0.0000 |      42.645 |
 | "CaloNeutralHcal2Ecal for Pi0Merged (additionalInfo)"|      4464 |    5624.48 |     1.2600 |     1.1330 |      0.0000 |      10.850 |
 | "CaloNeutralID for Photon (additionalInfo)"     |     16228 |6.065028e+08 |    37374.0 |     3457.0 |     33152.0 |     44151.0 |
 | "CaloNeutralID for Pi0Merged (additionalInfo)"  |      4464 |1.706247e+08 |    38222.0 |     3595.4 |     33196.0 |     44143.0 |
 | "CaloTrMatch for Photon (additionalInfo)"       |      1532 |   25779.36 |     16.827 |     7.0589 |      10.001 |      73.757 |
 | "CaloTrMatch for Pi0Merged (additionalInfo)"    |      4268 |   5434.289 |     1.2733 |     2.5618 |  0.00010970 |      32.860 |
 | "ClusterAsX for Photon (additionalInfo)"        |     16227 |  -6.273273 |-0.00038659 |    0.21970 |     -1.3938 |      1.1215 |
 | "ClusterAsY for Photon (additionalInfo)"        |     16228 |   9.383771 | 0.00057825 |    0.21646 |     -1.0702 |      1.2272 |
 | "IsNotH for Photon (additionalInfo)"            |     16228 |   4052.368 |    0.24971 |    0.33103 |     -1.0000 |     0.99989 |
 | "IsNotH for Pi0Merged (additionalInfo)"         |      4464 |   296.3101 |   0.066378 |    0.15706 |  6.4395e-05 |     0.99007 |
 | "IsPhoton for Photon (additionalInfo)"          |     16228 |   16158.02 |    0.99569 |   0.060753 |  6.5085e-05 |      1.0000 |
 | "IsPhoton for Pi0Merged (additionalInfo)"       |      4464 |   2060.765 |    0.46164 |    0.45911 |  3.7936e-08 |      1.0000 |
 | "IsPhotonXGB for Photon (additionalInfo)"       |     16228 |   16185.44 |    0.99738 |   0.043263 |  0.00011579 |      1.0000 |
 | "IsPhotonXGB for Pi0Merged (additionalInfo)"    |      4464 |   3314.659 |    0.74253 |    0.32190 |  2.3220e-07 |      1.0000 |
 | "Neutral Protos"                                |       175 |      29620 |     169.26 |     138.29 |      0.0000 |      533.00 |
 | "Neutral Protos from MergedPi0s"                |       175 |       4464 |     25.509 |     37.922 |      0.0000 |      146.00 |
 | "Neutral Protos from Photons"                   |       175 |      16228 |     92.731 |     65.336 |      0.0000 |      234.00 |
 | "Neutral Protos from SplitPhotons"              |       175 |       8928 |     51.017 |     75.843 |      0.0000 |      292.00 |
 | "ShowerShape for Photon (additionalInfo)"       |     16228 |8.641603e+07 |     5325.1 |     4324.6 |      245.81 |     37562.0 |
 | "ShowerShape for Pi0Merged (additionalInfo)"    |      4464 |4.160836e+07 |     9320.9 |     7992.0 |      313.24 |     42061.0 |
GraphClustering_72971694               INFO Number of counters : 4
 |    Counter                                      |     #     |    sum     | mean/eff^* | rms/err^*  |     min     |     max     |
 | "# clusters"                                    |       175 |      42844 |     244.82 |     193.12 |      0.0000 |      550.00 |
 | "Cluster energy"                                |     42844 |3.357175e+08 |     7835.8 |    12056.0 |      5.6000 |  2.7041e+05 |
 | "Cluster size"                                  |     42844 |     457264 |     10.673 |     2.7350 |      4.0000 |      28.000 |
 | "Negative energy clusters"                      |         1 |          1 |     1.0000 |     0.0000 |      1.0000 |      1.0000 |
HLTControlFlowMgr                      INFO Number of counters : 1
 |    Counter                                      |     #     |    sum     | mean/eff^* | rms/err^*  |     min     |     max     |
 | "Processed events"                              |       200 |
LHCb__Converters__Track__SOA__fr...    INFO Number of counters : 2
 |    Counter                                      |     #     |    sum     | mean/eff^* | rms/err^*  |     min     |     max     |
 | "Nb of Events without Tracks"                   |        10 |          0 |     0.0000 |
 | "Nb of Produced Tracks"                         |       165 |     214227 |     1298.3 |
LHCb__Converters__Track__SOA__fr...    INFO Number of counters : 2
 |    Counter                                      |     #     |    sum     | mean/eff^* | rms/err^*  |     min     |     max     |
 | "Nb of Events without Tracks"                   |        10 |          0 |     0.0000 |
 | "Nb of Produced Tracks"                         |       165 |       8947 |     54.224 |
LongGhostFilteredTrackChecker_fd...    INFO Number of counters : 1
 |    Counter                                      |     #     |    sum     | mean/eff^* | rms/err^*  |     min     |     max     |
MatchTrackChecker_9f924467.LoKi:...    INFO Number of counters : 1
 |    Counter                                      |     #     |    sum     | mean/eff^* | rms/err^*  |     min     |     max     |
MuonIDHlt2AlgLong_48c0d1c9             INFO Number of counters : 7
 |    Counter                                      |     #     |    sum     | mean/eff^* | rms/err^*  |     min     |     max     |
 | "BgLL"                                          |      1558 |  -1211.504 |   -0.77760 |    0.87620 |     -6.2520 |      0.0000 |
 | "MuLL"                                          |      1558 |  -12180.72 |    -7.8182 |     3.1676 |     -11.513 |    -0.11711 |
 | "muonMVAStat"                                   |      1558 |   -758.131 |   -0.48661 |    0.94190 |     -3.4806 |      3.9154 |
 |*"nInAcceptance"                                 |      8947 |       6214 |( 69.45345 +- 0.4869555)% |
 |*"nIsMuon"                                       |      8947 |       1558 |( 17.41366 +- 0.4009225)% |
 |*"nIsMuonTight"                                  |      8947 |       1291 |( 14.42942 +- 0.3714907)% |
 |*"nMomentumCut"                                  |      8947 |       7252 |( 81.05510 +- 0.4142835)% |
MuonPIDV2ToMuonTracks_Long_292b73a0    INFO Number of counters : 1
 |    Counter                                      |     #     |    sum     | mean/eff^* | rms/err^*  |     min     |     max     |
 | "Nb of input v2 MuonPIDs"                       |       175 |       8947 |     51.126 |
PatPV3DFuture_f0b332bb                 INFO Number of counters : 1
 |    Counter                                      |     #     |    sum     | mean/eff^* | rms/err^*  |     min     |     max     |
 | "Nb PVs"                                        |       175 |        186 |     1.0629 |
PrForwardTrackingVelo_11f570c6         INFO Number of counters : 10
 |    Counter                                      |     #     |    sum     | mean/eff^* | rms/err^*  |     min     |     max     |
 | "Accepted input tracks"                         |       163 |       5827 |     35.748 |
 | "Created long tracks"                           |       163 |       2124 |     13.031 |
 | "Input tracks"                                  |       163 |       6351 |     38.963 |
 | "Number of candidate bins per track"            |      5827 |     395046 |     67.796 |     74.858 |      0.0000 |      321.00 |
 | "Number of complete candidates/track 1st Loop"  |      4834 |       1837 |    0.38002 |    0.78501 |      0.0000 |      10.000 |
 | "Number of complete candidates/track 2nd Loop"  |      4585 |       1047 |    0.22835 |    0.57538 |      0.0000 |      6.0000 |
 | "Number of x candidates per track 1st Loop"     |      4834 |      37694 |     7.7977 |     8.4675 |
 | "Number of x candidates per track 2nd Loop"     |      4585 |     178482 |     38.927 |     39.470 |
 | "Percentage second loop execution"              |      4834 |       4585 |    0.94849 |
 | "Removed duplicates"                            |       163 |         14 |   0.085890 |
PrGECFilter_dca4f0bf                   INFO Number of counters : 2
 |    Counter                                      |     #     |    sum     | mean/eff^* | rms/err^*  |     min     |     max     |
 | "Nb Events Processed"                           |       200 |
 | "Nb events removed"                             |        25 |
PrHybridSeeding_45b49d9f               INFO Number of counters : 21
 |    Counter                                      |     #     |    sum     | mean/eff^* | rms/err^*  |     min     |     max     |
 | "Created T2x1 three-hit combinations in case 0" |   3944105 |    3302617 |    0.83736 |    0.76772 |      0.0000 |      6.0000 |
 | "Created T2x1 three-hit combinations in case 1" |   4006971 |    3612267 |    0.90150 |    0.93352 |      0.0000 |      13.000 |
 | "Created T2x1 three-hit combinations in case 2" |   5453176 |    7109047 |     1.3037 |     1.3922 |      0.0000 |      23.000 |
 | "Created XZ tracks (part 0)"                    |       525 |    1007046 |     1918.2 |     3414.4 |      0.0000 |     23853.0 |
 | "Created XZ tracks (part 1)"                    |       525 |    1035489 |     1972.4 |     3623.4 |      0.0000 |     22722.0 |
 | "Created XZ tracks in case 0"                   |       350 |     779343 |     2226.7 |     4481.4 |      0.0000 |     23853.0 |
 | "Created XZ tracks in case 1"                   |       350 |     589508 |     1684.3 |     2713.8 |      0.0000 |      9661.0 |
 | "Created XZ tracks in case 2"                   |       350 |     673684 |     1924.8 |     3096.2 |      0.0000 |     12317.0 |
 | "Created full hit combinations in case 0"       |   1664411 |    1664411 |     1.0000 |     0.0000 |      1.0000 |      1.0000 |
 | "Created full hit combinations in case 1"       |    800199 |     800199 |     1.0000 |     0.0000 |      1.0000 |      1.0000 |
 | "Created full hit combinations in case 2"       |   1174694 |    1174694 |     1.0000 |     0.0000 |      1.0000 |      1.0000 |
 | "Created seed tracks"                           |       350 |     221964 |     634.18 |     1137.0 |      0.0000 |      5111.0 |
 | "Created seed tracks (part 0)"                  |       175 |     115762 |     661.50 |     1146.5 |      0.0000 |      5208.0 |
 | "Created seed tracks (part 1)"                  |       175 |     118989 |     679.94 |     1222.0 |      0.0000 |      5232.0 |
 | "Created seed tracks in case 0"                 |       350 |     149257 |     426.45 |     858.02 |      0.0000 |      4772.0 |
 | "Created seed tracks in case 1"                 |       350 |     200063 |     571.61 |     1045.0 |      0.0000 |      5041.0 |
 | "Created seed tracks in case 2"                 |       350 |     233346 |     666.70 |     1183.2 |      0.0000 |      5227.0 |
 | "Created seed tracks in recovery step"          |       175 |       1405 |     8.0286 |     7.3713 |      0.0000 |      27.000 |
 | "Created two-hit combinations in case 0"        |     91325 |    6545335 |     71.671 |     52.942 |      0.0000 |      227.00 |
 | "Created two-hit combinations in case 1"        |     79754 |    6904147 |     86.568 |     54.204 |      0.0000 |      252.00 |
 | "Created two-hit combinations in case 2"        |     61688 |    8165333 |     132.37 |     84.143 |      1.0000 |      332.00 |
PrKalmanFilterForward_d40f19a6         INFO Number of counters : 6
 |    Counter                                      |     #     |    sum     | mean/eff^* | rms/err^*  |     min     |     max     |
 | "Pre outlier chi2 cut"                          |       700 |
 | "chi2 cut"                                      |       937 |
 | "nIterations"                                   |      2124 |       8948 |     4.2128 |
 | "nOutlierIterations"                            |      1424 |       2410 |     1.6924 |
 | "nTracksInput"                                  |       175 |       2124 |     12.137 |
 | "nTracksOutput"                                 |       175 |        487 |     2.7829 |
PrKalmanFilterMatch_c764c1a7           INFO Number of counters : 7
 |    Counter                                      |     #     |    sum     | mean/eff^* | rms/err^*  |     min     |     max     |
 | "Pre outlier chi2 cut"                          |      7302 |
 | "Transport failed"                              |         1 |          0 |     0.0000 |
 | "chi2 cut"                                      |      7532 |
 | "nIterations"                                   |     24025 |      71376 |     2.9709 |
 | "nOutlierIterations"                            |     16722 |      20614 |     1.2327 |
 | "nTracksInput"                                  |       175 |      24025 |     137.29 |
 | "nTracksOutput"                                 |       175 |       9190 |     52.514 |
PrKalmanFilterMatch_c764c1a7.Tra...    INFO Number of counters : 1
 |    Counter                                      |     #     |    sum     | mean/eff^* | rms/err^*  |     min     |     max     |
 | "RungeKuttaExtrapolator failed with code: RK: Curling"|         1 |
PrLHCbID2MCParticleVPFT_9135d9ec       INFO Number of counters : 1
 |    Counter                                      |     #     |    sum     | mean/eff^* | rms/err^*  |     min     |     max     |
 | "#removed null MCParticles"                     |   1389126 |          0 |     0.0000 |
PrMatchNN_8c1b6e71                     INFO Number of counters : 3
 |    Counter                                      |     #     |    sum     | mean/eff^* | rms/err^*  |     min     |     max     |
 | "#MatchingChi2"                                 |       163 |    2023365 |    12413.0 |
 | "#MatchingMLP"                                  |     24025 |   20092.54 |    0.83632 |
 | "#MatchingTracks"                               |       163 |      24025 |     147.39 |
PrStoreSciFiHits_fb0eba02              INFO Number of counters : 25
 |    Counter                                      |     #     |    sum     | mean/eff^* | rms/err^*  |     min     |     max     |
 | "Average X in T1U"                              |     94167 |   -1528202 |    -16.229 |     1138.1 |     -2656.2 |      2656.2 |
 | "Average X in T1V"                              |     97063 |   -1248438 |    -12.862 |     1139.7 |     -2656.3 |      2656.4 |
 | "Average X in T1X1"                             |     91325 |   -2393222 |    -26.206 |     1142.4 |     -2646.0 |      2646.0 |
 | "Average X in T1X2"                             |     97101 |   751414.8 |     7.7385 |     1140.4 |     -2646.2 |      2646.1 |
 | "Average X in T2U"                              |     95690 |   -1509785 |    -15.778 |     1164.7 |     -2656.3 |      2656.4 |
 | "Average X in T2V"                              |     98508 |   -1081133 |    -10.975 |     1157.8 |     -2656.3 |      2656.2 |
 | "Average X in T2X1"                             |     92325 |   -1637884 |    -17.740 |     1171.1 |     -2646.1 |      2646.2 |
 | "Average X in T2X2"                             |    100790 |    -526218 |    -5.2209 |     1154.1 |     -2646.2 |      2646.2 |
 | "Average X in T3U"                              |    105775 |   -1204895 |    -11.391 |     1373.4 |     -3188.4 |      3188.3 |
 | "Average X in T3V"                              |    108351 |  -914842.5 |    -8.4433 |     1370.8 |     -3188.4 |      3188.4 |
 | "Average X in T3X1"                             |    101888 |  -450924.8 |    -4.4257 |     1372.4 |     -3176.1 |      3176.2 |
 | "Average X in T3X2"                             |    111056 |   -1472929 |    -13.263 |     1361.3 |     -3176.2 |      3176.1 |
 | "Hits in T1U"                                   |       700 |      94167 |     134.52 |     124.62 |      3.0000 |      504.00 |
 | "Hits in T1V"                                   |       700 |      97063 |     138.66 |     128.19 |      6.0000 |      572.00 |
 | "Hits in T1X1"                                  |       700 |      91325 |     130.46 |     121.34 |      5.0000 |      465.00 |
 | "Hits in T1X2"                                  |       700 |      97101 |     138.72 |     127.79 |      6.0000 |      492.00 |
 | "Hits in T2U"                                   |       700 |      95690 |     136.70 |     126.91 |      8.0000 |      506.00 |
 | "Hits in T2V"                                   |       700 |      98508 |     140.73 |     129.78 |      7.0000 |      497.00 |
 | "Hits in T2X1"                                  |       700 |      92325 |     131.89 |     121.56 |      6.0000 |      480.00 |
 | "Hits in T2X2"                                  |       700 |     100790 |     143.99 |     133.88 |      8.0000 |      488.00 |
 | "Hits in T3U"                                   |       700 |     105775 |     151.11 |     138.80 |      10.000 |      525.00 |
 | "Hits in T3V"                                   |       700 |     108351 |     154.79 |     141.78 |      8.0000 |      530.00 |
 | "Hits in T3X1"                                  |       700 |     101888 |     145.55 |     133.24 |      9.0000 |      554.00 |
 | "Hits in T3X2"                                  |       700 |     111056 |     158.65 |     146.10 |      8.0000 |      572.00 |
 | "Total number of hits"                          |       175 |    1194039 |     6823.1 |     6234.4 |      681.00 |     21668.0 |
PrTrackAssociator_a2d66916             INFO Number of counters : 2
 |    Counter                                      |     #     |    sum     | mean/eff^* | rms/err^*  |     min     |     max     |
 |*"Efficiency"                                    |     29724 |      29478 |( 99.17239 +- 0.05254794)% |
 | "MC particles per track"                        |     29478 |      29518 |     1.0014 |
PrTrackAssociator_b2aa53b2             INFO Number of counters : 2
 |    Counter                                      |     #     |    sum     | mean/eff^* | rms/err^*  |     min     |     max     |
 |*"Efficiency"                                    |      2124 |        235 |( 11.06403 +- 0.6806411)% |
 | "MC particles per track"                        |       235 |        275 |     1.1702 |
PrTrackAssociator_c102400d             INFO Number of counters : 2
 |    Counter                                      |     #     |    sum     | mean/eff^* | rms/err^*  |     min     |     max     |
 |*"Efficiency"                                    |     24025 |       6448 |( 26.83871 +- 0.2858840)% |
 | "MC particles per track"                        |      6448 |       7421 |     1.1509 |
PrTrackAssociator_df60c37d             INFO Number of counters : 2
 |    Counter                                      |     #     |    sum     | mean/eff^* | rms/err^*  |     min     |     max     |
 |*"Efficiency"                                    |      8947 |       6380 |( 71.30882 +- 0.4781973)% |
 | "MC particles per track"                        |      6380 |       7311 |     1.1459 |
PrTrackAssociator_f2a09e7c             INFO Number of counters : 2
 |    Counter                                      |     #     |    sum     | mean/eff^* | rms/err^*  |     min     |     max     |
 |*"Efficiency"                                    |    221964 |      33604 |( 15.13939 +- 0.07607921)% |
 | "MC particles per track"                        |     33604 |      33605 |     1.0000 |
PrVPHitsToVPLightClusters_b49816cb     INFO Number of counters : 1
 |    Counter                                      |     #     |    sum     | mean/eff^* | rms/err^*  |     min     |     max     |
 | "Nb of Produced Clusters"                       |       175 |     195087 |     1114.8 |
SeedTrackChecker_cb7bbe88.LoKi::...    INFO Number of counters : 1
 |    Counter                                      |     #     |    sum     | mean/eff^* | rms/err^*  |     min     |     max     |
TBTCMatch_4bf58195                     INFO Number of counters : 3
 |    Counter                                      |     #     |    sum     | mean/eff^* | rms/err^*  |     min     |     max     |
 |*"BadInput"                                      |      9164 |          0 |( 0.000000 +- 0.000000)% |
 |*"FitFailed"                                     |      9164 |          0 |( 0.000000 +- 0.000000)% |
 | "FittedBefore"                                  |      9164 |
TBTC_Forward_69149922                  INFO Number of counters : 3
 |    Counter                                      |     #     |    sum     | mean/eff^* | rms/err^*  |     min     |     max     |
 |*"BadInput"                                      |       485 |          0 |( 0.000000 +- 0.000000)% |
 |*"FitFailed"                                     |       485 |          0 |( 0.000000 +- 0.000000)% |
 | "FittedBefore"                                  |       485 |
ToolSvc.IdealStateCreator.TrackM...    INFO Number of counters : 1
 |    Counter                                      |     #     |    sum     | mean/eff^* | rms/err^*  |     min     |     max     |
 | "Protect against looping tracks. See debug for details"|         1 |
TrackListRefiner_2c2bffe5              INFO Number of counters : 2
 |    Counter                                      |     #     |    sum     | mean/eff^* | rms/err^*  |     min     |     max     |
 | "#passed"                                       |       175 |       8062 |     46.069 |     46.988 |      0.0000 |      181.00 |
 | "#seeds"                                        |       175 |       8947 |     51.126 |     54.733 |      0.0000 |      216.00 |
UnpackMCFTHits                         INFO Number of counters : 1
 |    Counter                                      |     #     |    sum     | mean/eff^* | rms/err^*  |     min     |     max     |
 | "# UnPackedData"                                |       175 |    1284721 |     7341.3 |     7902.3 |      0.0000 |     27724.0 |
UnpackMCUTHits                         INFO Number of counters : 1
 |    Counter                                      |     #     |    sum     | mean/eff^* | rms/err^*  |     min     |     max     |
 | "# UnPackedData"                                |       175 |     409751 |     2341.4 |     2566.9 |      0.0000 |      9852.0 |
UnpackMCVPHits                         INFO Number of counters : 1
 |    Counter                                      |     #     |    sum     | mean/eff^* | rms/err^*  |     min     |     max     |
 | "# UnPackedData"                                |       175 |     218061 |     1246.1 |     1384.3 |      0.0000 |      5902.0 |
VeloClusterTrackingSIMD_24bf5547       INFO Number of counters : 2
 |    Counter                                      |     #     |    sum     | mean/eff^* | rms/err^*  |     min     |     max     |
 | "Nb of Produced Clusters"                       |       175 |     195087 |     1114.8 |
 | "Nb of Produced Tracks"                         |       175 |      29724 |     169.85 |
VeloFullTrackChecker_ccf457c1.Lo...    INFO Number of counters : 1
 |    Counter                                      |     #     |    sum     | mean/eff^* | rms/err^*  |     min     |     max     |
VeloTrackChecker_65f1a622.LoKi::...    INFO Number of counters : 1
 |    Counter                                      |     #     |    sum     | mean/eff^* | rms/err^*  |     min     |     max     |
fromPrForwardTracksV1Tracks_146e...    INFO Number of counters : 1
 |    Counter                                      |     #     |    sum     | mean/eff^* | rms/err^*  |     min     |     max     |
 | "Nb of converted Tracks"                        |       175 |       2124 |     12.137 |
fromPrMatchTracksV1Tracks_91f79a86     INFO Number of counters : 1
 |    Counter                                      |     #     |    sum     | mean/eff^* | rms/err^*  |     min     |     max     |
 | "Nb of converted Tracks"                        |       175 |      24025 |     137.29 |
fromPrSeedingTracksV1Tracks_2bf5...    INFO Number of counters : 1
 |    Counter                                      |     #     |    sum     | mean/eff^* | rms/err^*  |     min     |     max     |
 | "Nb of converted Tracks"                        |       175 |     221964 |     1268.4 |
fromPrVeloTracksV1TracksMerger_2...    INFO Number of counters : 1
 |    Counter                                      |     #     |    sum     | mean/eff^* | rms/err^*  |     min     |     max     |
 | "Nb of converted Tracks"                        |       175 |      29724 |     169.85 |
fromPrVeloTracksV1Tracks_46b8c895      INFO Number of counters : 1
 |    Counter                                      |     #     |    sum     | mean/eff^* | rms/err^*  |     min     |     max     |
 | "Nb of converted Tracks"                        |       175 |       6351 |     36.291 |
fromV2MuonPIDV1MuonPIDLong_5f51ab57    INFO Number of counters : 1
 |    Counter                                      |     #     |    sum     | mean/eff^* | rms/err^*  |     min     |     max     |
 | "Nb of Produced MuonPIDs"                       |       175 |       8947 |     51.126 |
